{
  "type": "service_account",
  "project_id": "vedantu-fos-mobile",
  "private_key_id": "8907021334ae6b35c126ba0bd3d49a5b8cac47e7",
  "private_key": "-----BEGIN PRIVATE KEY-----\nMIIEvQIBADANBgkqhkiG9w0BAQEFAASCBKcwggSjAgEAAoIBAQCeXvYISa0dxLmZ\ntHvYJBW0mkIr5GkXIsOQnDjT/0s/c90/MnCZG3p973w4jY74vTsoNkcgqGY09VNh\nXOfvzNUpvA/PQ6Tut9HbfyF/m50A5J2a2rcUcp+l9cBruPMB1UUnnWxtKsFpOZ5A\nDUS44yMU6bwNkgiSEbfzHzTWjdage12Xz0Wi70XDA8rBiZYJ9RrHnMkrPSk/tsgR\nLbwdf0DOrxLkQqpdqcOJ+F4qkjBWpmFRHBhncCqiOXSU7kXei8/xQVmKfJXowPGY\nwGC8J/1AaMTEmXLRU1G/ZrkGB4kWn4U3rIQ9xwLTpRC9NGtALAmXpFdDzaLsV9b/\n8sR2GsQZAgMBAAECggEAP1O9kebUIJkvljTDaNRVEZi1aRO2qheul77AQpVNI5xT\nFhg3SiHgw0bmJz8DspcIdrXtjzOHWxnWM5KQ9CS2ADBBKiHka8h5VAnr/TjeeSLx\nmqBmoPiMujIgtXKJSWxccNDUMHruSANQMlCb8EpzFsO3/L0uTCplogQSftDMx/Kn\nERZdev6+CAiC/W+aHnHduOo0O8Vp4+JhRUSYIRagumi6d7DUGeYauW16Dd3OeLsP\nZm22nqf0tzRQy5nt/ShWbEkVUbxHVIS2fXF5pjL3UH5gxNm4Hknjt737weNO5aMY\nF+cUkRh5qUkHIzRxIuX8Vtaq7Igdmsh+uwmL/6HtGQKBgQD/NIIXe2QQqzlA+Zvb\nDa51lrmWNYXiPld64XfCrrAsCq9NZS7eyHvALAbOv5I91JIU7l7CmHBTcD1fG1Md\nY9DZpkwwO2jjvGiDK9PxDpa+ZcsRvDWBr5+fjirR5aq39jI88cjaJxsjOnG3bG+q\ndyFfHxHrbMZFIQ07xpiwO+ROHwKBgQCe3T2adQcBrqKN8WanBIVb6uyk3R8kX0lU\nfzDVBJ16J7lPhlom39mf4vP36TamJnj0UMsUULQKjEvqBj/iBDts4SC23qR6YsbJ\n9QqwbbF3tqGEMHoChRvUt/y0MYGPLadjtqX62ttcmg2yK3m+x4a8jf6pUBKyYfu3\n9+EDtOi2xwKBgQDuZ/gLxbpyE/J1b3kYxwwuT3LqDvAWrZR9d7mwRg7P5d9kFt0V\nRAbPPJHTfIU6e6VIJnKhqVRtrhG3Ekiv0PpfCQptmGJhNTYRK9VfgPhzv5ZX6BG4\nJ/+fR2lbEglMt5Kw+lJe8V9ZppRq/MLIZWfoe5b67m++TqUVLW6gXCLokwKBgAk4\nlkbM3CdA17adeHPhU0xOioXXP+OAlGUPLOpwZiOdAqiXB8yR2bPqHHcbVky2lva3\nadI4DPs/wXhH/JVF4Z0kRB3ZNnrUGO3IB2LOOyrTsvRVS/+xcjgapdRfu0FwSPME\nuwWghnMNjhX1aA+mzS9Mnqd9OliYT2ASR0FL0uYpAoGAUoBlyRlATE9d4bBxZxZC\nCtj/YiXHXnCnBobN2DJFsKVnfkdtSOBNrnYoB6wxC0JAh3w6I+j5Klnpwk9sVUVI\noZ+P6CQouhz3s27t/QOIbf8Tf/qDjIcjNOumw1TsXJyaXdqrGm/DYlhsXf2UygXo\nfAnQkpt0Cpg+g8jijnW5lWA=\n-----END PRIVATE KEY-----\n",
  "client_email": "vedantu-fos-mobile@appspot.gserviceaccount.com",
  "client_id": "111171616195925950606",
  "auth_uri": "https://accounts.google.com/o/oauth2/auth",
  "token_uri": "https://accounts.google.com/o/oauth2/token",
  "auth_provider_x509_cert_url": "https://www.googleapis.com/oauth2/v1/certs",
  "client_x509_cert_url": "https://www.googleapis.com/robot/v1/metadata/x509/vedantu-fos-mobile%40appspot.gserviceaccount.com"
}
