{
  "type": "service_account",
  "project_id": "vedantu-fos-wave",
  "private_key_id": "d2383921f903eae55a7f428ff2781b3f9cb5b14b",
  "private_key": "-----BEGIN PRIVATE KEY-----\nMIIEvgIBADANBgkqhkiG9w0BAQEFAASCBKgwggSkAgEAAoIBAQC0z0/Fhr3JDre2\nKP8TZYj3YV7sNsoWiN6/VJ0uvxOE2XXYWlw/6lcnTtjpuQTQGVBGLlWX9Ia/sfOS\nFmfe5YDWw1/xkL+tQjVcU+BJQ22+CUyGe4N0OxuQn+HSeasPxNxRcaqf1mdw4IAF\nVflFS8VsDmmA4TJD70SmXplJzR2+EBi8ZG8DixP6VNdW/5ytFQqVhwNRJcqKspsa\nOBkJ3313GM+HNFtXhNKWTZroJ5/EBFqyuCT7MuvaiuJI3qcMTNlRSb9u+FYcHmZB\n168FXc86LW8BmWLs/XdzVogu2ysBoV0EAvcFLzP+9vMnesMPI5W+osZzDOh5YXOL\nnKz1JmxFAgMBAAECggEBAIacsa9FmZZOtsePzhgKx+YlQB5szBfq3qtju4JKD6Yg\noHPrEjMjrK8/LI8ViFfGANW/OUpgatHdEpH4zGxOQZWi75NRSOMdH80VRS5GXTXW\nhnq5Ci1GtEcAQYgJvSmITt7z2SwW2/xVp/pQ/7xvpRPFxxaEkn+xa1LRqx4e773H\nyq5I04LrkcNOwxDdDIUdc+4DjRJlTmBi4Lk+ZKjQ7eFCCJL2qHj5UcGE/OE7QCcH\ngIezcgszgCQtJu49b4WfIviiQlg4PQ2OUk2jo6jRNZNkMDYW6cxe/oDV8DW7x9xp\nXXlRTCu+2TgPaKHLgKWvgAvlhlssv7NdwlC1zh3bFgECgYEA9zxogBULXLcEVSVe\nU60YHdX23aKrYpHr6L/jbIDPgtnl0xEd6OiEU1z0dWkhRKCwkR16OON6OhVgpsS4\n6QO01hYgGRrlvoEsvMF5fR46yo4hmbazRNoYhd/oYEmuuPEw6WEm0peKJt3ZVww/\nLPQxa40n47p7WE2GVNQF4vvcYNECgYEAuzgbJxLE8tSACCKaSgm3M0ne1RohFMqO\nXJQB/voHANtSP0y/Sm8pElQM40/4n4s3CZj/ql5K9ONxR0BLXOO0osade4s2iU28\nZdGDwUNUDWumEa5sj6Ny7UuhnE/kjnrLkUw7WkvsdxPj+clHEw5PnG3PPeKRgZBQ\nMqmx6Q6wkTUCgYEAz38wiUagOZkUls19BCdDFU9NGCh9RIYJg1cA7UCSaFSuMV2t\nR5tV640ZUi0AkdN3POOLf5FTNMpaSrzSICZPMFpzZ/6OETviqyyJ5PtpBjUReCvA\n+yk76afJJH7SmD88+LHj3lz2wrXwwcDyiK0NiSF3+AW7nZm7AxjLM/yDsfECgYB1\n2OJWnRz2Eccp18YxFp6IHVaz44exU7N7GPuMqYvhAS1rhP7gdspurBOUvpEstHAH\njZRZhJNARS7X/+Owa/EXiVg2HTJOCW2u1cxOyffNntZhSN8zJ1q/fh0TjMK84RTk\nuAygUSxe5FlbsVQY7ag1OnX6aXTYDqQ8z86aelGwhQKBgE3XaunB4mKEydh4OyeA\nPiEOTakJvy1QklvBpRsqolpu28Gp5v0zPXD6DXryCVoJJ4EfEoxAaBNA8Cl9wUgP\n23JgD7MbWiDbGOH3hJYo/D5ZttNUiDE/b+SHIkuKSS2I2kF9yWFDJv2jGNoC7ve+\nM6gH1YfOrblz0xEQOR2Bovqy\n-----END PRIVATE KEY-----\n",
  "client_email": "service-account-1@vedantu-fos-wave.iam.gserviceaccount.com",
  "client_id": "112112028143461445632",
  "auth_uri": "https://accounts.google.com/o/oauth2/auth",
  "token_uri": "https://accounts.google.com/o/oauth2/token",
  "auth_provider_x509_cert_url": "https://www.googleapis.com/oauth2/v1/certs",
  "client_x509_cert_url": "https://www.googleapis.com/robot/v1/metadata/x509/service-account-1%40vedantu-fos-wave.iam.gserviceaccount.com"
}
