{
  "private_key_id": "90087ee5c0fb19261f8782bfbbaf3757b0749c81",
  "private_key": "-----BEGIN PRIVATE KEY-----\nMIICdgIBADANBgkqhkiG9w0BAQEFAASCAmAwggJcAgEAAoGBAN0LIcMUVvOmK6jF\ncs7QzPjf1Lhg1L0h6joENIKh0GwhaQ+w1p8HNIbpiSFJ0SH1Yn3pnyozXWJMm1L3\nHapvEetdTPOEBbD1kozektjyiJ1St5f/yAIhzO+ygfdpKa7LtT9bq7Wha4Zierfr\neEArVcVoh4hwvnOFa6fJFkz81EeNAgMBAAECgYA0VD1S7I7FMbKmStAqK/5KcNrw\nJ2RVviCwSWyQ/HPWFXbE0y2MCm2h/smLCumqq2f8vQEEQZK7Ab3Hv17TiWXpLLlf\nchkYr57HjPcZGUcV53A5Fs2nAHbOI7IyvXmXR4d+6KowybX9S0WJnxbMSoo6Yzbb\neB5SJVbb9dpJNu3BYQJBAPhzqvpNPdfaD2wUFZNbRKoCAPRXtV4lXeRaFSP+LkNk\nAd7Vo+MybZZH1rywOFkk69bCftTnfL2mtyhuUwJMokkCQQDjwku7Mg82WQRsOxyI\nTxpHnstqbzKTm/n6onkN1uSvvWys6oFq800VFS5cMwtYtUPOgLL3gGZX8pdIsJJr\nijslAkEAgowklwjnKfhGij+zZo5acgpDfiBoCGQSBd7fpN32aSqvYOtZBhSFSKXO\ny668rPqdgWcJRc2s2eoz62as71RdIQJAHazkJyjXmJIypFNzXUNJPkmvYVfJtDff\nc0uWEDqOo2M/9Ku9Xw0CXxvaZYL1GILNqetU5jChpRXjpkHzYfWpzQJACGmbsJcZ\nJQ2n4UjGLrB+E70zd0M/kqEcn0Bnli/1g4em1vuZcFFJqJzmTp9IlYvQP5IMsuJl\n89fiDlTBRqHEKQ\u003d\u003d\n-----END PRIVATE KEY-----\n",
  "client_email": "85662877588-etas2slqau658qqee3gvau5u0vqetdk3@developer.gserviceaccount.com",
  "client_id": "85662877588-etas2slqau658qqee3gvau5u0vqetdk3.apps.googleusercontent.com",
  "type": "service_account"
}