{
  "type": "service_account",
  "project_id": "vedantu-fos-qa1",
  "private_key_id": "00e6086f1a1e27becf4a4b68a6452c649e895eff",
  "private_key": "-----BEGIN PRIVATE KEY-----\nMIIEvQIBADANBgkqhkiG9w0BAQEFAASCBKcwggSjAgEAAoIBAQDXI7XSxnJX8KoT\nCSOIwt+kP8ZweF3g30933WW6hfdMJEEb+HQgccvZPMTyRHjrL6KnPMmHyePuWn8o\nnJP+SeYBau4+RGPmaL1T3VXEARy1d0KM10ZSsnU/VFA6HuxM3nI9NTGxtRRWTKhw\ninavSevBt9VeuYUmPWkhLlq76m1oJpCMsIY2si6o1juJNgMB4uRyNf8NIxVHYNT0\nEDsbg4KzxJZfslCCTgXZj/96BcCQPT3KhTH70KXx28bYZbkJYarc5onLoLPjU83A\nkvuu7WEYjNemxR2TvlU8RCeB2C1neYCz6Ux3YGMKj881Y/10PwGvccfj4zfK0X20\nTcHzDgWjAgMBAAECggEABwxJcZ1Es7LTr4n2Gw3fS783HgojcTF/pfqf0Yt//YOW\nincKPuHbfsNp5FHv8CyAVKA+Le+kQvO+BLOUeZksKtG4+ls9Npgp06yFmcU7jopY\nqMqIqD7mbmuxsSXAMgh7j5vFg//dqbIbNoyitL1kNtVx7QeA4C7U2dxt5ogYi3fg\njioRPJIQOkPL1LmPOm7V7NFFScNWBiNJPRdsGrLb0aLJfMteftpshEpo0BSTWs57\nzWHi3PMmraXoxYHMfE6CLKHBCJrFT1Gt+nw7QBNB8VQz9l/jTMHaFga+7IsxRQzM\ngtyLkLN53r7yVVz5k8p8MnYWB4UxgMVegpjZtDQC+QKBgQD59QvjVVpxKNL/zIkH\n34Zf1rer8VIqQHousnjxVk03OWV7mi0ZXWf6ngkdv4EEGIylDbuRNIQXT0xhtAeb\nNfv4n7Y6r6xoFMe+SGhSAvUEdo6qRzmjiq3qrOHCA6ZzGL/LsrigeF+eGqx8zwKT\nhoPPhW4CZjWxIAyhxD5lELM5LwKBgQDcVy5s6NGfpuF6ZKIEUPmg6GCfS+m+nVcL\nUs0o2MVvjC9Gs0tZ70B//63cEOsbsQ/LMLjn3OEM7hX2cPfumH7MNzxFxBm/GPOk\nIyBSHakv2WuZ7bExs43Aizssdqsh5RLysLLyMmOMRf+SRgff4Y/LoJ71Wf/qWkzB\nO5zcONW1zQKBgQDKWteE81SEx8gJzkwhU5Q1gl6vlG4wRoKjy1ieCH/6dTzzE53v\nKu9CtS4sJx0Lc9RoyvVOWHWXaVssvdJqlQmn/aRJXm70093g7j2GJ160fkaBE6hV\n/a9OjSc3Kj1WcHLVNZrCTrEaDf4WDIDJbdzH4/1rc9OD0a5oR7c7mol9gQKBgGiZ\n2qhJPnqUNqZr754s8tS4fGYjG6wp9ZCillK11cTGwArIQxVGx0/8iQTX40UaIW1M\ni/tGmHAS9sovhwP10PwRnMNh/PcDWWaqZkWVXyQgCzzf4ia+HqUxc73/9+33Wa9s\nwwbHdQq6kEFYjZRy+Fiqv8uqFhujEp0JN8Y0FQBhAoGASf+qrF9VbU1gSKR9mkkH\niCQ8ZhsKLFR+SR8jxK/EwsBKO2eX7SmfZ1Vgfi8qzEkdpofdSH+agE42mrupQnNM\nio9rm25AJDWjqT+ClP4S2M8xU2O8MF8NrmBToJHqmduEUmRwwy2LySeZABOhMokj\nukJk8A9Cu9z8kmQ6MGIuFKg=\n-----END PRIVATE KEY-----\n",
  "client_email": "vedantu-fos-qa1@appspot.gserviceaccount.com",
  "client_id": "111004167099430795644",
  "auth_uri": "https://accounts.google.com/o/oauth2/auth",
  "token_uri": "https://accounts.google.com/o/oauth2/token",
  "auth_provider_x509_cert_url": "https://www.googleapis.com/oauth2/v1/certs",
  "client_x509_cert_url": "https://www.googleapis.com/robot/v1/metadata/x509/vedantu-fos-qa1%40appspot.gserviceaccount.com"
}
